Análisis de datos con RStudio - Proyecto BACI
…
codes.regiones <- read_csv(folder.path.r,show_col_types = F)

#Pasamos a numérico
codes.regiones$`M49 Code` <- as.numeric(codes.regiones$`M49 Code`)
#class(codes.regiones$`M49 Code`)

# Seleccionamos las columnas que nos interesan
codes.regiones <-codes.regiones %>% select("Region Code", "Region Name", "M49 Code", "Country or Area")

nombres_regiones <- c(codes.regiones %>% select("Region Name") %>% distinct())

codes.regiones

## # A tibble: 248 × 4
##    `Region Code` `Region Name` `M49 Code` `Country or Area`                     
##    <chr>         <chr>              <dbl> <chr>                                 
##  1 002           África                12 Argelia                               
##  2 002           África               818 Egipto                                
##  3 002           África               434 Libia                                 
##  4 002           África               504 Marruecos                             
##  5 002           África               729 Sudán                                 
##  6 002           África               788 Túnez                                 
##  7 002           África               732 Sáhara Occidental                     
##  8 002           África                86 Territorio Británico del Océano Índico
##  9 002           África               108 Burundi                               
## 10 002           África               174 Comoras                               
## # ℹ 238 more rows
…
      print(sprintf("Top 5 de productos de la región *%s* en valores para cada año", nombre))
      
      print(tabla_top_5_v)
      print(graph.top_5_v)
      }
    }

  tabla_top_5_values <- tabla.sum.v.by.k.region (k_sum.v_by.i, nombre, anios)
  tabla_top_5_values
}

## [1] "Top 5 de productos de la región *África* en valores para cada año"
## # A tibble: 60 × 4
##    Producto Región   Año `Sum Val. Export.`
##    <chr>    <chr>  <int>              <dbl>
##  1 270900   África  2012         257306890.
##  2 710812   África  2012          28591313.
##  3 271000   África  2012          24226087.
##  4 271111   África  2012          22493010.
##  5 271121   África  2012          21024588.
##  6 270900   África  2013         261912038.
##  7 710812   África  2013          33614548.
##  8 271000   África  2013          27915381.
##  9 271111   África  2013          22823476.
## 10 271121   África  2013          18552978.
## # ℹ 50 more rows
…
## [1] "Top 5 de productos de la región *Américas* en valores para cada año"
## # A tibble: 60 × 4
##    Producto Región     Año `Sum Val. Export.`
##    <chr>    <chr>    <int>              <dbl>
##  1 270900   Américas  2012         241528647.
##  2 271000   Américas  2012          62927201.
##  3 870323   Américas  2012          41444648.
##  4 710812   Américas  2012          40429190.
##  5 870324   Américas  2012          34405896.
##  6 270900   Américas  2013         244947980.
##  7 271000   Américas  2013          59986692.
##  8 870323   Américas  2013          47276332.
##  9 710812   Américas  2013          39009637.
## 10 260111   Américas  2013          34458808.
## # ℹ 50 more rows
…
## [1] "Top 5 de productos de la región *Asia* en valores para cada año"
## # A tibble: 60 × 4
##    Producto Región   Año `Sum Val. Export.`
##    <chr>    <chr>  <int>              <dbl>
##  1 270900   Asia    2012         967512533.
##  2 271000   Asia    2012         311834757.
##  3 851712   Asia    2012         166589712.
##  4 847130   Asia    2012         145373428.
##  5 710812   Asia    2012         137809644.
##  6 270900   Asia    2013         784419483.
##  7 271000   Asia    2013         294520535.
##  8 851712   Asia    2013         189161474.
##  9 847130   Asia    2013         132602481.
## 10 710812   Asia    2013         129982426.
## # ℹ 50 more rows
…
## [1] "Top 5 de productos de la región *Europa* en valores para cada año"
## # A tibble: 60 × 4
##    Producto Región   Año `Sum Val. Export.`
##    <chr>    <chr>  <int>              <dbl>
##  1 271000   Europa  2012         376017331.
##  2 270900   Europa  2012         239899507.
##  3 300490   Europa  2012         132361306.
##  4 870332   Europa  2012          94585229.
##  5 870323   Europa  2012          91650081.
##  6 271000   Europa  2013         371662319.
##  7 270900   Europa  2013         228673087.
##  8 300490   Europa  2013         135710096.
##  9 870332   Europa  2013          99783045.
## 10 870323   Europa  2013          99287171.
## # ℹ 50 more rows
…
## [1] "Top 5 de productos de la región *Oceanía* en valores para cada año"
## # A tibble: 60 × 4
##    Producto Región    Año `Sum Val. Export.`
##    <chr>    <chr>   <int>              <dbl>
##  1 260111   Oceanía  2012          61096598.
##  2 270112   Oceanía  2012          43759012.
##  3 270900   Oceanía  2012          15096712.
##  4 271111   Oceanía  2012          14347225.
##  5 710813   Oceanía  2012          10484311.
##  6 260111   Oceanía  2013          71126763.
##  7 270112   Oceanía  2013          35753273.
##  8 271111   Oceanía  2013          15009359.
##  9 710812   Oceanía  2013          14703621.
## 10 710813   Oceanía  2013          11066817.
## # ℹ 50 more rows
…
      print(sprintf("Top 5 de productos de la región *%s* en cantidades para cada año", nombre))
      
      print(tabla_top_5_q)
      
      print(graph.top_5_q)
      }
    }

  tabla_top_5_quants <- tabla.sum.q.by.k.region (k_sum.q_by.i, nombre, anios)
  tabla_top_5_quants
}

## [1] "Top 5 de productos de la región *África* en cantidades para cada año"
## # A tibble: 60 × 4
##    Producto Región   Año `Sum. Cant. Export.`
##    <chr>    <chr>  <int>                <dbl>
##  1 270900   África  2012           304184675.
##  2 270112   África  2012            76688473.
##  3 260111   África  2012            54640637.
##  4 271111   África  2012            35241010.
##  5 271121   África  2012            29635573.
##  6 270900   África  2013           322547390.
##  7 260111   África  2013            72478144.
##  8 270112   África  2013            69772481.
##  9 271111   África  2013            35301479.
## 10 271121   África  2013            33585138.
## # ℹ 50 more rows
…
## [1] "Top 5 de productos de la región *Américas* en cantidades para cada año"
## # A tibble: 60 × 4
##    Producto Región     Año `Sum. Cant. Export.`
##    <chr>    <chr>    <int>                <dbl>
##  1 270900   Américas  2012           344594451.
##  2 260111   Américas  2012           326461892.
##  3 270112   Américas  2012           117752662.
##  4 260112   Américas  2012            76386682.
##  5 271000   Américas  2012            73661546.
##  6 270900   Américas  2013           363229288.
##  7 260111   Américas  2013           340811224.
##  8 270112   Américas  2013           120137002.
##  9 271000   Américas  2013            74590728.
## 10 260112   Américas  2013            70998358.
## # ℹ 50 more rows
…
## [1] "Top 5 de productos de la región *Asia* en cantidades para cada año"
## # A tibble: 60 × 4
##    Producto Región   Año `Sum. Cant. Export.`
##    <chr>    <chr>  <int>                <dbl>
##  1 270900   Asia    2012          1182601498.
##  2 220190   Asia    2012           793888758.
##  3 271000   Asia    2012           337443840.
##  4 270119   Asia    2012           208837800.
##  5 270112   Asia    2012           206112872.
##  6 270900   Asia    2013           988246931.
##  7 220190   Asia    2013           698892079.
##  8 271000   Asia    2013           321854152.
##  9 270119   Asia    2013           214298219.
## 10 270112   Asia    2013           198680764.
## # ℹ 50 more rows
…
## [1] "Top 5 de productos de la región *Europa* en cantidades para cada año"
## # A tibble: 60 × 4
##    Producto Región   Año `Sum. Cant. Export.`
##    <chr>    <chr>  <int>                <dbl>
##  1 271000   Europa  2012           413171701.
##  2 270900   Europa  2012           323646381.
##  3 270112   Europa  2012           124803304.
##  4 271121   Europa  2012           121014569.
##  5 251710   Europa  2012            65420872.
##  6 271000   Europa  2013           425090387.
##  7 270900   Europa  2013           319913473.
##  8 271121   Europa  2013           136961320.
##  9 270112   Europa  2013           128469068.
## 10 251710   Europa  2013            66368513.
## # ℹ 50 more rows
…
## [1] "Top 5 de productos de la región *Oceanía* en cantidades para cada año"
## # A tibble: 60 × 4
##    Producto Región    Año `Sum. Cant. Export.`
##    <chr>    <chr>   <int>                <dbl>
##  1 260111   Oceanía  2012           497186488.
##  2 270112   Oceanía  2012           302192685.
##  3 100199   Oceanía  2012            22663233.
##  4 271111   Oceanía  2012            20376806.
##  5 270900   Oceanía  2012            18332976.
##  6 260111   Oceanía  2013           570519840.
##  7 270112   Oceanía  2013           316687186.
##  8 270119   Oceanía  2013            43146246.
##  9 271111   Oceanía  2013            22156346.
## 10 100199   Oceanía  2013            16942159.
## # ℹ 50 more rows
…
    # Obtenemos una tabla con la información del precio para todos los años
      tabla_final <- tabla_final %>%
        #distinct(k, sum_q, sum_v, t) %>%
        mutate (p_imp = sum_v/sum_q) %>%
        left_join(.,codes.productos , by = c(k="code")) %>%
        select(k, t, sum_q, sum_v, p_imp, description)

  return(tabla_final)
}

tabla.precio.imp <- tabla.precio(version, anios) %>% filter(sum_q > 0)
tabla.precio.imp

## # A tibble: 62,373 × 6
##    k          t    sum_q    sum_v  p_imp description                            
##    <chr>  <int>    <dbl>    <dbl>  <dbl> <chr>                                  
##  1 010121  2012   25283. 1166505. 46.1   Horses: live, pure-bred breeding anima…
##  2 010129  2012   73596.  948005. 12.9   Horses: live, other than pure-bred bre…
##  3 010130  2012    3558.    3176.  0.893 Asses: live                            
##  4 010190  2012    3042.   40006. 13.2   Mules and hinnies: live                
##  5 010221  2012  269502. 1438843.  5.34  Cattle: live, pure-bred breeding anima…
##  6 010229  2012 2031103. 6260329.  3.08  Cattle: live, other than pure-bred bre…
##  7 010231  2012    5998.    6163.  1.03  Buffalo: live, pure-bred breeding anim…
##  8 010239  2012   61130.   58859.  0.963 Buffalo: live, other than pure-bred br…
##  9 010290  2012 1016735. 2253625.  2.22  Bovine animals: live, other than cattl…
## 10 010310  2012   54556.  258817.  4.74  Swine: live, pure-bred breeding animals
## # ℹ 62,363 more rows
…
Tabla que muestra el promedio del precio implícito de cada producto a
lo largo de todos los años

tabla.pr.imp.mean <- tabla.precio.imp %>%
  group_by(k, description) %>%
  summarise(mean.p_imp = mean(p_imp, na.rm = T),  .groups = 'drop')

colnames(tabla.pr.imp.mean) <- c('Cod. Producto', 'Descripción','Prom. Precio Implícito ($/kg)')

tabla.pr.imp.mean

## # A tibble: 5,198 × 3
##    `Cod. Producto` Descripción                            Prom. Precio Implíci…¹
##    <chr>           <chr>                                                   <dbl>
##  1 010121          Horses: live, pure-bred breeding anim…                  64.4 
##  2 010129          Horses: live, other than pure-bred br…                  17.9 
##  3 010130          Asses: live                                              1.41
##  4 010190          Mules and hinnies: live                                  4.64
##  5 010221          Cattle: live, pure-bred breeding anim…                   4.08
##  6 010229          Cattle: live, other than pure-bred br…                   2.96
##  7 010231          Buffalo: live, pure-bred breeding ani…                   1.86
##  8 010239          Buffalo: live, other than pure-bred b…                   3.12
##  9 010290          Bovine animals: live, other than catt…                   2.80
## 10 010310          Swine: live, pure-bred breeding anima…                   4.84
## # ℹ 5,188 more rows
## # ℹ abbreviated name: ¹​`Prom. Precio Implícito ($/kg)`
…
